…
```r
protm <- protm %>%
  separate(Accession,
           into = c("Accession", "Group members"),
           sep = ";",
           extra = "merge",
           fill = "right")

protm
```

```
## # A tibble: 1,982 x 34
##    Accession `Group members` `Peptide count` `Unique peptide~
##    <chr>     <chr>                     <dbl>            <dbl>
##  1 Cre06.g2~ Cre06.g263450.~              59               58
##  2 Cre12.g5~ <NA>                         52               49
##  3 Cre12.g5~ <NA>                         52               51
##  4 Cre04.g2~ <NA>                         50               48
##  5 Cre03.g1~ <NA>                         50               47
##  6 gi|41179~ <NA>                         50               47
##  7 Cre02.g0~ <NA>                         48               45
##  8 gi|41179~ <NA>                         48               47
##  9 Cre01.g0~ <NA>                         48               47
## 10 Cre01.g0~ <NA>                         46               45
## # ... with 1,972 more rows, and 30 more variables: `Confidence
## #   score` <dbl>, `Anova (p)` <dbl>, `Max fold change` <dbl>, `Highest
## #   mean condition` <chr>, `Lowest mean condition` <chr>,
## #   Description <chr>, `20141222_WOS521` <dbl>, `20141222_WOS526` <dbl>,
## #   `20141222_WOS5211` <dbl>, `20141222_WOS5216` <dbl>,
## #   `20141222_WOS522` <dbl>, `20141222_WOS527` <dbl>,
## #   `20141222_WOS5212` <dbl>, `20141222_WOS5217` <dbl>,
## #   `20141222_WOS523` <dbl>, `20141222_WOS528` <dbl>,
## #   `20141222_WOS5213` <dbl>, `20141222_WOS5218` <dbl>,
…
### Redox
> Load Peptide Measurements spreadsheet exported from Progenesis.


```r
pepm <- "data/20190123_EWM_AZD1_R_rank-lessthan11-include_uniprot_pepm.csv" %>%
  paste0(url, .) %>%
  read_csv(., skip = 2, col_types = cols())

pepm
```

```
## # A tibble: 10,211 x 66
##      `#` `Retention time~ Charge `m/z` `Measured mass` `Mass error (u)`
##    <dbl>            <dbl>  <dbl> <dbl>           <dbl>            <dbl>
##  1   130            38.2       2  664.           1327.        0.00337  
##  2   917            38.2       3  443.           1327.        0.00274  
##  3  5147            38.2       1 1328.           1327.        0.00973  
##  4   164            42.4       2  420.            837.        0.00153  
##  5   592            42.5       1  838.            837.        0.00422  
##  6  5285            43.9       2  420.            837.        0.0000464
##  7 13698             1.56      2  420.            837.        0.000358 
##  8 15100             2.38      2  420.            837.        0.000578 
##  9 21044             2.08      2  420.            837.        0.00453  
## 10 21065             1.15      2  420.            837.        0.000253 
## # ... with 10,201 more rows, and 60 more variables: `Mass error
## #   (ppm)` <dbl>, Score <chr>, Sequence <chr>, Modifications <chr>,
## #   Accession <chr>, Description <chr>, `Use in quantitation` <lgl>, `Max
## #   fold change` <dbl>, `Highest mean condition` <chr>, `Lowest mean
## #   condition` <chr>, Anova <dbl>, `Maximum CV` <dbl>,
## #   `20190123_EWM_AZD1_R0_1_2h_5-35_5uL` <dbl>,
## #   `20190123_EWM_AZD1_R0_2_2h_5-35_5uL` <dbl>,
## #   `20190123_EWM_AZD1_R0_3_2h_5-35_5uL` <dbl>,
## #   `20190123_EWM_AZD1_R0_4_2h_5-35_5uL` <dbl>,
…
> Load Protein Measurements spreadsheet exported from Progenesis.


```r
protm <- "data/20190123_EWM_AZD1_R_rank-lessthan11-include_uniprot_protm.csv" %>%
  paste0(url, .) %>%
  read_csv(., skip = 2, col_types = cols())

protm
```

```
## # A tibble: 2,341 x 41
##    Accession `Peptide count` `Unique peptide~ `Confidence sco~ `Anova (p)`
##    <chr>               <dbl>            <dbl>            <dbl>       <dbl>
##  1 tr|A8J3S~               1                1             23.3    8.88e-16
##  2 tr|Q3HTK~              10               10            440.     6.34e-14
##  3 tr|A8HZF~               1                1             48.3    9.66e-13
##  4 tr|A0A2K~              10               10            559.     1.42e-12
##  5 tr|A8HWQ~               1                1             40.2    8.19e-12
##  6 tr|A0A2K~               3                3            202.     3.87e-11
##  7 tr|A0A2K~               3                3            106.     1.76e-10
##  8 tr|A8J8I~               8                7            354.     1.84e- 9
##  9 tr|A8J1F~               5                5            195.     2.17e- 9
## 10 tr|A8JIB~               1                1             33.8    6.64e- 9
## # ... with 2,331 more rows, and 36 more variables: `Max fold
## #   change` <dbl>, `Highest mean condition` <chr>, `Lowest mean
## #   condition` <chr>, Description <chr>,
## #   `20190123_EWM_AZD1_R0_1_2h_5-35_5uL` <dbl>,
## #   `20190123_EWM_AZD1_R0_2_2h_5-35_5uL` <dbl>,
## #   `20190123_EWM_AZD1_R0_3_2h_5-35_5uL` <dbl>,
## #   `20190123_EWM_AZD1_R0_4_2h_5-35_5uL` <dbl>,
## #   `20190123_EWM_AZD1_R15_1_2h_5-35_5uL` <dbl>,
## #   `20190123_EWM_AZD1_R15_2_2h_5-35_5uL` <dbl>,
…
